{
    "prepare_queue": {
        "installed": [],
        "uninstalled": []
    },
    "config_munge": {
        "files": {}
    },
    "installed_plugins": {
        "cordova-plugin-device": {
            "PACKAGE_NAME": "io.cordova.myapp0bef99"
        },
        "cordova-plugin-console": {
            "PACKAGE_NAME": "io.cordova.myapp0bef99"
        },
        "cordova-plugin-whitelist": {
            "PACKAGE_NAME": "io.cordova.myapp0bef99"
        },
        "cordova-plugin-splashscreen": {
            "PACKAGE_NAME": "io.cordova.myapp0bef99"
        },
        "cordova-plugin-statusbar": {
            "PACKAGE_NAME": "io.cordova.myapp0bef99"
        },
        "ionic-plugin-keyboard": {
            "PACKAGE_NAME": "io.cordova.myapp0bef99"
        },
        "cordova-plugin-camera": {
            "PACKAGE_NAME": "io.cordova.myapp0bef99"
        },
        "cordova-plugin-image-picker": {
            "PACKAGE_NAME": "io.cordova.myapp0bef99"
        },
        "cordova-plugin-x-toast": {
            "PACKAGE_NAME": "io.cordova.myapp0bef99"
        },
        "cordova-plugin-compat": {
            "PACKAGE_NAME": "io.cordova.myapp0bef99"
        },
        "cordova-plugin-filepath": {
            "PACKAGE_NAME": "io.cordova.myapp0bef99"
        }
    },
    "dependent_plugins": {}
}